<svg xmlns="http://www.w3.org/2000/svg" viewBox="-743 46.5 500 500">
    <path d="M-667.6 223.27v7.86h119.9v-7.86h-119.9zm0 42.402v7.857h119.9v-7.86h-119.9zm0 42.5v7.857h119.9v-7.86h-119.9zm0 42.398v7.86h119.9v-7.86h-119.9zm229.3-127.3v7.86h119.9v-7.86h-119.9zm0 42.402v7.857h119.9v-7.86h-119.9zm0 42.5v7.857h119.9v-7.86h-119.9zm0 42.398v7.86h119.9v-7.86h-119.9z" class="book-lines" />
    <g>
        <path d="M-709.8 138.07c-16.53 0-29.93 13.505-29.93 29.93v245.6c0 16.528 13.505 29.93 29.93 29.93h174.3c2.116 0 6.17 1.46 10.53 4.068 4.362 2.607 9.114 6.2 13.454 9.82 8.68 7.237 15.686 14.508 15.686 14.508l2.83 2.94 2.83-2.94s7.006-7.27 15.686-14.508c4.34-3.62 9.092-7.213 13.453-9.82 4.36-2.608 8.413-4.07 10.53-4.07h174.3c16.443 0 29.93-13.485 29.93-29.928V168c0-16.443-13.487-29.93-29.93-29.93h-174.3c-16.623 0-31.627 6.864-42.5 17.844-10.875-10.98-25.88-17.844-42.5-17.844h-174.3zm0 7.86h174.3c15.83 0 29.93 7.056 39.52 18.228l2.98 3.475 2.98-3.475c9.59-11.172 23.69-18.228 39.52-18.228h174.3c12.158 0 22.07 9.913 22.07 22.07v245.6c0 12.157-9.912 22.072-22.07 22.072h-174.3c-4.884 0-9.642 2.24-14.562 5.182s-9.92 6.747-14.454 10.53A200.702 200.702 0 0 0-493 463.67a200.702 200.702 0 0 0-13.484-12.29c-4.535-3.78-9.533-7.586-14.453-10.528-4.92-2.943-9.68-5.182-14.563-5.182h-174.3c-12.176 0-22.07-9.8-22.07-22.072V168c0-12.175 9.797-22.07 22.07-22.07z" />
        <path d="M-496.93 161.6v307.7h7.86V161.6h-7.86z" />
    </g>
</svg>
