<svg xmlns="http://www.w3.org/2000/svg" viewBox="-825 19.5 500 500">
    <path d="M-642.5 83.64c-25.865 0-47.06 21.194-47.06 47.06v15.94h-87.74c-25.16 0-45.76 20.602-45.76 45.76v217c0 25.24 20.6 45.86 45.76 45.86h404.7c25.16 0 45.76-20.602 45.76-45.76v-217c0-25.158-20.6-45.76-45.76-45.76h-93.64V130.8c0-25.862-21.192-47.057-47.055-47.06h-.006l-129.197-.1h-.004zm129.2 7.76v7.66c17.534 0 31.74 14.206 31.74 31.74v31.26h108.96c16.842 0 30.44 13.598 30.44 30.44v217c0 16.842-13.598 30.44-30.44 30.44h-404.7c-16.843 0-30.44-13.578-30.44-30.54v-217c0-16.84 13.597-30.44 30.44-30.44h103.06V130.7c0-17.534 14.202-31.738 31.734-31.74l129.2.1.005-7.66zM-578 202.14c-53.035 0-96.16 43.125-96.16 96.16 0 53.036 43.125 96.16 96.16 96.16s96.16-43.124 96.16-96.16c0-53.045-43.216-96.16-96.16-96.16zm0 15.32c44.656 0 80.84 36.087 80.84 80.84 0 44.765-36.075 80.84-80.84 80.84s-80.84-36.075-80.84-80.84c0-44.764 36.075-80.84 80.84-80.84z" />
</svg>
