<?xml version="1.0" encoding="utf-8"?>
<!-- Generator: Adobe Illustrator 19.0.0, SVG Export Plug-In . SVG Version: 6.00 Build 0)  -->
<svg version="1.1" id="Capa_1" xmlns="http://www.w3.org/2000/svg" xmlns:xlink="http://www.w3.org/1999/xlink" x="0px" y="0px"
	 viewBox="0 0 500 500" style="enable-background:new 0 0 500 500;" xml:space="preserve">
<g>
	<ellipse cx="250" cy="397.5" rx="250" ry="63.4" class="icon-service-shadow"/>
	<path d="M455.2,200c0-10.3-8.3-18.6-18.6-18.6h-15.8c-8.3,0-15.3,5.5-17.6,13c-5.9-25.3-11.6-50.6-15.9-76l-32.5-31.6l-18,33.6
			l-7.1-47.5l-24,12.1l13.7-25.9l-47,6l50.5-25.9c-52.3,0-104.7,0-157,0c-27.1,0-48.7,22-52.1,48.8c-4.1,35.2-11.8,70.1-19.9,105
			c-2.8-6.8-9.4-11.6-17.2-11.6H60.8c-10.3,0-18.6,8.3-18.6,18.6c0,10.3,8.3,18.6,18.6,18.6h7.9c-2.4,1.5-4.6,3.3-6.7,5.2l27.6-3.4
			l-23.7,21.9l23.7,21H65.9v22.6l-16.3-13c1,6.8,1.9,13.7,2.8,20.5c3.6,26.9,21.7,48.9,44.3,48.9c0.9,0,1.9,0,2.8,0v21.1
			c0,16.9,13.7,30.6,30.6,30.6c16.9,0,30.6-13.7,30.6-30.6v-21.1c58.5,0,117.1,0,175.6,0v21.1c0,16.9,13.7,30.6,30.6,30.6
			c16.9,0,30.6-13.7,30.6-30.6v-21.1c0.9,0,1.8,0,2.7,0c22.5,0,40.7-22,44.3-48.9c1.1-9.3,2.4-18.6,3.8-27.8
			c3.1-19.7-5.5-38-20.1-47.1h8.7C446.9,218.5,455.2,210.2,455.2,200z" class="icon-service-body"/>
	<circle style="fill:#FFFFFF;" cx="130" cy="269.3" r="27"/>
	<circle style="fill:#FFFFFF;" cx="366.8" cy="269.3" r="27"/>
	<path style="fill:#FFFFFF;" d="M327.3,195.6c0,2.6-2.3,4.7-5.1,4.7H182.3c-2.8,0-5.1-2.1-5.1-4.7l0,0c0-2.6,2.3-4.7,5.1-4.7h139.8
		C325,190.9,327.3,193,327.3,195.6L327.3,195.6z"/>
	<g>
		<path style="fill:#FFFFFF;" d="M356.1,112.9L332,155.5L321,93l-42.3,27l20.6-44.4h-83.8c0,0,22.4-7.8,48.4-16.5
			c-28.5,0-57,0-85.6,0c-23,0-41.3,18.7-44.2,41.4c-3,26.3-8.5,52.3-14.4,78.3h257.2c-4.2-18.3-8.1-36.5-11.1-54.9L356.1,112.9z"/>
	</g>
</g>
</svg>
