<?xml version="1.0" encoding="utf-8"?>
<!-- Generator: Adobe Illustrator 19.0.0, SVG Export Plug-In . SVG Version: 6.00 Build 0)  -->
<svg version="1.1" id="Capa_1" xmlns="http://www.w3.org/2000/svg" xmlns:xlink="http://www.w3.org/1999/xlink" x="0px" y="0px"
	 viewBox="0 0 500 500" style="enable-background:new 0 0 500 500;" xml:space="preserve">
<path d="M500,388.5c0,35-111.9,63.4-250,63.4S0,423.5,0,388.5c0-35,111.9-63.4,250-63.4S500,353.5,500,388.5z" class="icon-service-shadow"/>
<g>
	<path class="icon-service-body" d="M442.1,302.4c-3.6,26.9-21.7,48.9-44.3,48.9c-101.1,0-202.3,0-303.4,0c-22.5,0-40.7-22-44.3-48.9
		c-1.1-9.3-2.5-18.5-3.8-27.8c-4.2-26.4,12.8-50.4,37.1-53c108.3-9.4,217.2-9.4,325.4,0c24.3,2.6,41.3,26.6,37.1,53
		C444.5,283.9,443.2,293.2,442.1,302.4z"/>
	<path class="icon-service-body" d="M158.3,372.4c0,16.9-13.7,30.6-30.6,30.6l0,0c-16.9,0-30.6-13.7-30.6-30.6v-42.2c0-16.9,13.7-30.6,30.6-30.6l0,0
		c16.9,0,30.6,13.7,30.6,30.6V372.4z"/>
	<path class="icon-service-body" d="M395.1,372.4c0,16.9-13.7,30.6-30.6,30.6l0,0c-16.9,0-30.6-13.7-30.6-30.6v-42.2c0-16.9,13.7-30.6,30.6-30.6l0,0
		c16.9,0,30.6,13.7,30.6,30.6V372.4z"/>
	<path class="icon-service-body" d="M411.1,247.7c6.1,26-19.1,53-55.2,57.4c-73,7.9-146.7,7.9-219.7,0c-36.1-4.4-61.3-31.4-55.2-57.4
		c11.2-50.2,24.7-100.1,30.5-150.7c3.3-26.8,24.9-48.8,52.1-48.8c55,0,110,0,165,0c27.1,0,48.7,22,52.1,48.8
		C386.5,147.6,399.9,197.5,411.1,247.7z"/>
	<path class="icon-service-body" d="M453,208.9c0,10.3-8.3,18.6-18.6,18.6h-15.8c-10.3,0-18.6-8.3-18.6-18.6l0,0c0-10.3,8.3-18.6,18.6-18.6h15.8
		C444.7,190.3,453,198.7,453,208.9L453,208.9z"/>
	<g>
		<path class="icon-service-body" d="M40,208.9c0,10.3,8.3,18.6,18.6,18.6h15.8c10.3,0,18.6-8.3,18.6-18.6l0,0c0-10.3-8.3-18.6-18.6-18.6H58.5
			C48.3,190.3,40,198.7,40,208.9L40,208.9z"/>
		<path class="icon-service-body" d="M65.8,225.2c0.4-0.3,21.3,21.3,21.3,21.3l5.8-33.6H69.8L65.8,225.2z"/>
	</g>
	<polygon class="icon-service-body" points="471.1,303.8 484.7,306.6 470.9,309.7 468.2,323.1 465.2,309.6 451.8,306.6 465.5,303.9 468.2,290.2 	"/>
	<polygon class="icon-service-body" points="427.9,378.7 441.4,381.6 427.6,384.7 425,398 422,384.6 408.6,381.6 422.2,378.8 425,365.2 	"/>
	<polygon class="icon-service-body" points="473.4,354.2 497.4,359.4 472.9,364.8 468.2,388.5 462.9,364.7 439.1,359.4 463.3,354.4 468.2,330.2 	"/>
</g>
<g>
	<path style="fill:#FFFFFF;" d="M360.3,109.5C357.4,86.7,339.1,68,316.1,68c-46.7,0-93.3,0-140,0c-23,0-41.3,18.7-44.2,41.4
		c-3,26.3-8.5,52.3-14.4,78.3h257.2C368.8,161.8,363.3,135.7,360.3,109.5z"/>
</g>
<path style="fill:#FFFFFF;" d="M154.8,278.3c0,14.9-12.1,27-27,27c-14.9,0-27-12.1-27-27c0-14.9,12.1-27,27-27
	C142.7,251.3,154.8,263.4,154.8,278.3z"/>
<path style="fill:#FFFFFF;" d="M391.6,278.3c0,14.9-12.1,27-27,27c-14.9,0-27-12.1-27-27c0-14.9,12.1-27,27-27
	C379.5,251.3,391.6,263.4,391.6,278.3z"/>
<path style="fill:#FFFFFF;" d="M325,204.6c0,2.6-2.3,4.7-5.1,4.7H180.1c-2.8,0-5.1-2.1-5.1-4.7l0,0c0-2.6,2.3-4.7,5.1-4.7h139.8
	C322.7,199.8,325,201.9,325,204.6L325,204.6z"/>
</svg>
