<?xml version="1.0" encoding="utf-8"?>
<!-- Generator: Adobe Illustrator 19.0.0, SVG Export Plug-In . SVG Version: 6.00 Build 0)  -->
<svg version="1.1" id="Capa_1" xmlns="http://www.w3.org/2000/svg" xmlns:xlink="http://www.w3.org/1999/xlink" x="0px" y="0px"
	 viewBox="0 0 500 500" style="enable-background:new 0 0 500 500;" xml:space="preserve">
<g>
	<path d="M499.6,397.1c0,35-111.8,63.3-249.6,63.3S0.4,432,0.4,397.1c0-34.9,111.8-63.3,249.6-63.3S499.6,362.1,499.6,397.1z" class="icon-service-shadow"/>
	<path d="M457.1,204.4l0.4,0l-18.7-18.1l-15.8,0.2l-13.7,12.9L396.1,180l6.5-23.9l-14.9-19.4l2.3-22.7l-1.2-21.9l-11.1-24.6
		l-23-11.4l-21.5-13.4l-23.5,6.8l-23.5-0.4l-23.5-9.4L239.2,44l-23.5,5.8l-23.5-8l-23.5-2l-24.3,11.2l-15.2,19.5l-13.5,21.7
		l-1.9,21.9l-1.3,22.1l-11.6,20.1l0.4,22.5l-7.2,20.9l0,0.1l-14.7-14.2l-15.8,0.1l-18,18.4l-0.6,0L62.9,222l-15.8,21.9l5.7,25.7
		l0,28.3l8.4,22.9l20.2,12.2l17.9,10l1.4,0.3l0,3.1l-0.2,21.1l10.3,21.9l21.9,7.5l0,2.9l22.6-9.6l6.4-22.6l0-21.1l0-0.2l7.5,3.6
		l23.3,0.7l23.3,1.2l23.3-2.2l23.3,3.9l23.3-2.1l23.3-10.7l23.3,6.2l5.1,0.9l0.6,19.8l10.8,20.2l20.1,10.7l0-2.1l20.4-8.3
		l11.4-20.4l0.2-21.1l-0.9-6.4l2.1-1.2l18.4-5l13.6-16.1l7.7-20.6l6.1-27.5l-3.4-22.2l-7.1-23.9l-0.8-0.3l2.2,0L457.1,204.4z
		 M408.1,208.5l0.1-0.4l0.4,0.4L408.1,208.5z" class="icon-service-body icon-service-body-lighten"/>
	<polygon style="fill:#FFFFFF;" points="361,105.5 355.3,85.9 343.9,65.7 320.8,64.8 297.5,68.3 274.2,65.4 250.9,58.8 
		227.6,63.4 204.3,59.2 181,64.7 159.3,67.9 141.4,82.5 141.2,105.4 130.9,124.1 129.8,144 124.5,163.2 121.8,185.4 145.8,187.9 
		169.1,185 192.4,187.7 215.8,178.1 239.1,186.3 262.5,182 285.8,178.1 309.2,182.9 332.5,187.2 355.9,188.2 378.3,179.8 
		377.4,163.3 369.9,144.5 371.8,124.1"/>
	<polygon style="fill:#FFFFFF;" points="160.1,273.5 151.8,292.6 132.7,299.8 112.9,293.2 104.9,273.4 113.2,254 132.7,247.3 
		151.9,254.2"/>
	<polygon style="fill:#FFFFFF;" points="395.2,273.6 388.9,293.4 369.1,300.5 350.7,292 341.7,273.6 350,254.4 369.1,247.2 
		388.9,253.8"/>
	<polygon style="fill:#FFFFFF;" points="331.7,199.9 324.6,207.2 301.3,206.7 278.1,202.1 254.8,205.1 231.5,206.9 208.3,206.9 
		185,202.7 181.4,199.8 179.7,199.8 185,192.5 208.2,196 231.5,194.6 254.7,196.9 278,192.7 301.3,197.1 324.6,197.9 328.6,200.7"/>
</g>
</svg>
